﻿exercise,muscle group,level
Dumbbell bench press,Chest,Beginner
Inclince bench press,Chest,Beginner
Push up,Chest,Beginner
Barbell bench press,Chest,Beginner
Bench push up,Chest,Beginner
Cable chest press,Chest,Beginner
Cable crossovers,Chest,Beginner
Cable iron cross,Chest,Beginner
Decline bench press,Chest,Beginner
Decline Dumbbell bench press,Chest,Beginner
Dumbbell bench press,Chest,Beginner
Smith machine bench press,Chest,Beginner
Dumbbell fly's ,Chest,Beginner
Floor press,Chest,Beginner
Hammer strength bench press,Chest,Beginner
Incline cable bench press,Chest,Beginner
Incline cable flies,Chest,Beginner
Incline dumbbell bench press,Chest,Beginner
knee push up,Chest,Beginner
Smith machine incline bench press,Chest,Beginner
Standing cable fly ,Chest,Beginner
Standing cable fly high to low,Chest,Beginner
Standing cable fly low to high,Chest,Beginner
Yoga push up,Chest,Beginner
chest dip,Chest,Intermediate
Alternate DB Bench Press,Chest,Intermediate
Alternating reach push up,Chest,Intermediate
Barbell pull over,Chest,Intermediate
Close grip Dumbell press,Chest,Intermediate
Dumbbel pullover,Chest,Intermediate
paused barbell bench press,Chest,Intermediate
paused push up,Chest,Intermediate
spiderman push up,Chest,Intermediate
Alternating medicine ball push up,Chest,Expert
Band suspended kettlebell bench press,Chest,Expert
Brench press with chains,Chest,Expert
Feet on wall push up,Chest,Expert
Kettlebell push up,Chest,Expert
Muscle up,Chest,Expert
Single arm Medicine ball push up,Chest,Expert
Weighted chest dip,Chest,Expert
Ring fly,Chest,Expert
Ring push up,Chest,Expert
Straight bar dip,Chest,Expert
Bent over row,Back,Beginner
machine T-bar row,Back,Beginner
seated cable row,Back,Beginner
bent over dumbbell row,Back,Beginner
chest supported dumbbell row,Back,Beginner
double arm sled row,Back,Beginner
inverted row,Back,Beginner
machine row,Back,Beginner
meadows row,Back,Beginner
single arm dumbbell row,Back,Beginner
t-bar row,Back,Beginner
barbell shrug,Back,Beginner
dumbbell shrug,Back,Beginner
barbell upright row,Back,Beginner
behind-the-back barbell shrug,Back,Beginner
face pulls,Back,Beginner
cable shrug,Back,Beginner
machine shrug,Back,Beginner
trap bar shrug,Back,Beginner
lat pull down,Back,Beginner
close grip lat pull down,Back,Beginner
wide grip pull up,Back,Beginner
pull up,Back,Beginner
chin up,Back,Beginner
straight arm lat push down,Back,Beginner
rope straight arm push down,Back,Beginner
band assisted chin up,Back,Beginner
deadlift,Back,Beginner
banded machine T-bar row,Back,Intermediate
Incline bench cable row,Back,Intermediate
Renegade row,Back,Intermediate
Reverse grip bent over row,Back,Intermediate
Weighted inverted row,Back,Intermediate
Clean shrug,Back,Intermediate
High pull,Back,Intermediate
Inverted shrug,Back,Intermediate
Behind neck lat pull down,Back,Intermediate
Chin up with leg raise,Back,Intermediate
Rope climb,Back,Intermediate
weighted chin up ,Back,Intermediate
weighted pull up,Back,Intermediate
pendlay row,Back,Intermediate
Arms only rope climb,Back,Expert
L-sit chin up,Back,Expert
dumbbell lateral raise,Shoulders,Beginner
overhead press,Shoulders,Beginner
bent over low pully rear delt fly ,Shoulders,Beginner
alternating battle ropes,Shoulders,Beginner
dumbbell overhead press,Shoulders,Beginner
upright rows,Shoulders,Beginner
barbell front raise,Shoulders,Beginner
dumbbell front raise,Shoulders,Beginner
cable face pull,Shoulders,Beginner
cable front raise ,Shoulders,Beginner
Alternate seated arnold press,Shoulders,Intermediate
Alternating standing kettlebell press,Shoulders,Intermediate
Anti-gravity press,Shoulders,Intermediate
Landmine press,Shoulders,Intermediate
Lying shoulder press,Shoulders,Intermediate
Reverse flys on rings,Shoulders,Intermediate
Seated Arnold press,Shoulders,Intermediate
cable crunch,Abdominal,Beginner
lying floor leg raise,Abdominal,Beginner
plank,Abdominal,Beginner
side plank ,Abdominal,Beginner
ab crunch,Abdominal,Beginner
sit up,Abdominal,Beginner
decline sit up,Abdominal,Beginner
russian twist ,Abdominal,Beginner
lying floor knee tuck,Abdominal,Beginner
pallof press,Abdominal,Beginner
turkish get up,Abdominal,Beginner
frog sit up,Abdominal,Beginner
twisting floor crunch,Abdominal,Beginner
landmine rotation,Abdominal,Beginner
side plank with hip dip,Abdominal,Beginner
wood chop,Abdominal,Beginner
half kneeling cable chop,Abdominal,Beginner
half kneeling cable lift,Abdominal,Beginner
off bench oblique hold,Abdominal,Beginner
Weighted crunch,Abdominal,Intermediate
Abdominal roll outs,Abdominal,Intermediate
Dead bug,Abdominal,Intermediate
Hollow body hold,Abdominal,Intermediate
Pallof press with rotation,Abdominal,Intermediate
Split stance pallof press,Abdominal,Intermediate
Weighted hanging knee raise,Abdominal,Expert
hanging knee raise,Abdominal,Expert
Dumbbell curl,Arms,Beginner
Barbell curl,Arms,Beginner
Hammer curl,Arms,Beginner
Incline dumbbell curl,Arms,Beginner
EZ bar curl,Arms,Beginner
Preacher curl,Arms,Beginner
Single arm cable curl,Arms,Intermediate
EZ bar skull crusher,Arms,Beginner
Cable rope push down,Arms,Beginner
Close grip push ups,Arms,Beginner
Overhead tricep extension,Arms,Intermediate
close grip bench press,Arms,Intermediate
wrist curl,Arms,Beginner
farmers carry,Arms,Beginner
wrist rollers,Arms,Beginner
barbell back squat,Quads,Beginner
leg press,Quads,Beginner
machine hack squat,Quads,Beginner
dumbbell step up,Quads,Beginner
box jump,Quads,Beginner
backwards sled push,Quads,Beginner
box squats,Quads,Beginner
bodyweight lunge,Quads,Beginner
bodyweight side lunge,Quads,Beginner
bodyweight walking lunge,Quads,Beginner
front squat,Quads,Beginner
kettle bell split squats,Quads,Beginner
dumbbell goblet squat,Quads,Beginner
dumbbell goblin box squat,Quads,Beginner
frog squat,Quads,Beginner
smith machine split squat,Quads,Beginner
smith machine back squat,Quads,Beginner
landmine goblet squat,Quads,Beginner
leg extension,Quads,Beginner
single leg leg press,Quads,Beginner
bodyweight bulgarian split squat,Quads,Beginner
sled push,Quads,Beginner
Anderson Squat,Quads,Intermediate
Barbell jumping squats,Quads,Intermediate
Barbell lateral lunge,Quads,Intermediate
barbell lunge,Quads,Intermediate
barbell step ups,Quads,Intermediate
Belt squat,Quads,Intermediate
bodyweight wall sit,Quads,Intermediate
weighted wall sit,Quads,Intermediate
Depth jump,Quads,Intermediate
Dumbbel rear lunge,Quads,Intermediate
Front foot elevated split squat,Quads,Intermediate
Rear foot elevated split squat,Quads,Intermediate
Landmine reverse lunge,Quads,Intermediate
Back squat with chains,Quads,Expert
Box squat with chains,Quads,Expert
Band resisted back squat,Quads,Expert
Barbell thruster,Quads,Expert
bodyweight pistol squat,Quads,Expert
Depth jump to box jump,Quads,Expert
Depth jump to broad jump,Quads,Expert
Ipsilateral Dumbell front lunge,Quads,Expert
Kettlebell walking lunge,Quads,Expert
DumbbellBulgarian split squat,Quads,Expert
Walking barbell lunge,Quads,Expert
seated leg curl,Hamstrings,Beginner
romanian deadlift,Hamstrings,Beginner
deadlift,Hamstrings,Beginner
kettlebell swings,Hamstrings,Beginner
dumbbell stiff leg deadlift,Hamstrings,Beginner
inchworm,Hamstrings,Beginner
prone leg curl,Hamstrings,Beginner
single leg leg curl,Hamstrings,Beginner
Landmine RDL,Hamstrings,Intermediate
Bodyweight single leg deadlift,Hamstrings,Intermediate
Band assisted nordic hamstring curl,Hamstrings,Intermediate
Kettlebell RDL,Hamstrings,Intermediate
Glute Ham Raise (GHR),Hamstrings,Intermediate
Deficit Deadlift,Hamstrings,Intermediate
Conventional block pull deadlift,Hamstrings,Intermediate
nordic hamstring curl,Hamstrings,Expert
Single leg dumbbell deadlift,Hamstrings,Expert
Single leg landmine RDL,Hamstrings,Expert
Plate resisted Glute ham raise,Hamstrings,Expert
Single leg Valslide Curl,Hamstrings,Expert
Banded conventional deaadlift,Hamstrings,Expert
leg press calf raise,Calves,Beginner
seated calf raise,Calves,Beginner
standing machine calf raise,Calves,Beginner
banded tibialis raise,Calves,Beginner
bodyweight floor calf raise,Calves,Beginner
donkey calf raise,Calves,Beginner
jump rope,Calves,Beginner